6372: Project 2
…
# Rename response variable
bank_clean <- bank_clean %>% 
  rename(subscribed = y)

bank_clean %>% 
  # Are there any housing or personal loans?
  mutate(any_loan = (housing == "yes" | loan == "yes")) %>% 
  # Based on the EDA, it doesn't appear as though day of the week is necessarily
  # notable, but I'll make a factor just in case
  mutate(weekdays_3 = if_else(day_of_week == "mon", "Beginning",
                              if_else(day_of_week == "fri", "End", "Middle")))

## # A tibble: 41,188 x 23
##      age job   marital education default housing loan  contact month day_of_week
##    <dbl> <chr> <chr>   <chr>     <chr>   <chr>   <chr> <chr>   <ord> <ord>      
##  1    56 hous married basic.4y  no      no      no    teleph may   mon        
##  2    57 serv married high.sch <NA>    no      no    teleph may   mon        
##  3    37 serv married high.sch no      yes     no    teleph may   mon        
##  4    40 admi married basic.6y  no      no      no    teleph may   mon        
##  5    56 serv married high.sch no      no      yes   teleph may   mon        
##  6    45 serv married basic.9y  <NA>    no      no    teleph may   mon        
##  7    59 admi married professi no      no      no    teleph may   mon        
##  8    41 blue married <NA>      <NA>    no      no    teleph may   mon        
##  9    24 tech single  professi no      yes     no    teleph may   mon        
## 10    25 serv single  high.sch no      yes     no    teleph may   mon        
## #  with 41,178 more rows, and 13 more variables: duration <dbl>,
## #   campaign <dbl>, pdays <dbl>, previous <dbl>, poutcome <chr>,
## #   emp_var_rate <dbl>, cons_price_idx <dbl>, cons_conf_idx <dbl>,
## #   euribor3m <dbl>, nr_employed <dbl>, subscribed <chr>, any_loan <lgl>,
## #   weekdays_3 <chr>
…
inspectdf::inspect_cor(bank_clean)

## # A tibble: 45 x 7
##    col_1          col_2            corr p_value  lower  upper pcnt_nna
##    <chr>          <chr>           <dbl>   <dbl>  <dbl>  <dbl>    <dbl>
##  1 euribor3m      emp_var_rate    0.972       0  0.972  0.973      100
##  2 nr_employed    euribor3m       0.945       0  0.944  0.946      100
##  3 nr_employed    emp_var_rate    0.907       0  0.905  0.909      100
##  4 cons_price_idx emp_var_rate    0.775       0  0.771  0.779      100
##  5 euribor3m      cons_price_idx  0.688       0  0.683  0.693      100
##  6 nr_employed    cons_price_idx  0.522       0  0.515  0.529      100
##  7 nr_employed    previous       -0.501       0 -0.509 -0.494      100
##  8 euribor3m      previous       -0.454       0 -0.462 -0.447      100
##  9 emp_var_rate   previous       -0.420       0 -0.428 -0.413      100
## 10 euribor3m      cons_conf_idx   0.278       0  0.269  0.287      100
## #  with 35 more rows
…
